<svg width="30" height="30" viewBox="0 0 30 30" fill="none" xmlns="http://www.w3.org/2000/svg">
<path fill-rule="evenodd" clip-rule="evenodd" d="M21.6668 5.02236C19.6934 3.70379 17.3734 3 15 3C11.8174 3 8.76515 4.26428 6.51472 6.51472C4.26428 8.76515 3 11.8174 3 15C3 17.3734 3.70379 19.6934 5.02236 21.6668C6.34094 23.6402 8.21508 25.1783 10.4078 26.0866C12.6005 26.9948 15.0133 27.2324 17.3411 26.7694C19.6688 26.3064 21.807 25.1635 23.4853 23.4853C25.1635 21.807 26.3064 19.6688 26.7694 17.3411C27.2324 15.0133 26.9948 12.6005 26.0866 10.4078C25.1783 8.21508 23.6402 6.34094 21.6668 5.02236ZM18.0958 22.3996L18.3174 21.4876L18.3026 21.4932C18.1231 21.5692 17.938 21.631 17.7488 21.6778C17.5251 21.7442 17.2934 21.7802 17.0601 21.7849C16.7412 21.814 16.4214 21.7395 16.1481 21.5726C16.0484 21.466 15.9733 21.3389 15.928 21.2001C15.8827 21.0614 15.8683 20.9144 15.886 20.7695C15.895 20.5381 15.9227 20.3078 15.9691 20.0809C16.0156 19.8069 16.0772 19.5357 16.1537 19.2686L16.9863 16.3147C17.0713 16.0231 17.1276 15.7238 17.1543 15.4212C17.1838 15.0981 17.1986 14.871 17.1986 14.7418C17.2088 14.4567 17.1556 14.1729 17.043 13.9108C16.9303 13.6487 16.7608 13.4148 16.5469 13.2261C16.0197 12.8061 15.355 12.5974 14.6823 12.6409C14.1991 12.6471 13.7196 12.7274 13.2608 12.879C12.7611 13.0366 12.2368 13.2273 11.6878 13.4513L11.4645 14.3652C11.5082 14.3513 11.5544 14.3363 11.603 14.3205C11.7347 14.2777 11.8843 14.2291 12.0515 14.1806C12.2669 14.1146 12.4908 14.0804 12.7161 14.079C13.0317 14.044 13.3494 14.1233 13.6115 14.3024C13.7007 14.4125 13.7674 14.5392 13.8076 14.6751C13.8478 14.811 13.8609 14.9535 13.846 15.0944C13.8433 15.3277 13.818 15.5602 13.7703 15.7886C13.7223 16.0433 13.6608 16.3123 13.5857 16.5953L12.7494 19.5492C12.6774 19.8612 12.622 20.1399 12.5869 20.3855C12.5546 20.626 12.5379 20.8684 12.5371 21.111C12.5303 21.3967 12.5873 21.6803 12.7038 21.9412C12.8204 22.2021 12.9936 22.4338 13.2109 22.6193C13.7469 23.0437 14.4209 23.2548 15.1032 23.2119C15.5749 23.2193 16.0446 23.1488 16.4934 23.0033C16.8921 22.8667 17.4275 22.6655 18.0958 22.3996ZM18.3665 9.82814C18.4671 9.60132 18.5178 9.35548 18.5149 9.10734H18.5168C18.5183 8.85967 18.467 8.61453 18.3664 8.38821C18.2658 8.16188 18.1182 7.95957 17.9334 7.79472C17.5492 7.44236 17.0469 7.24687 16.5257 7.24687C16.0044 7.24687 15.5021 7.44236 15.118 7.79472C14.9316 7.9586 14.7825 8.1606 14.6809 8.38705C14.5793 8.61351 14.5275 8.85914 14.5291 9.10734C14.5262 9.35602 14.5773 9.60235 14.679 9.82931C14.7807 10.0563 14.9305 10.2584 15.118 10.4218C15.5032 10.7713 16.0047 10.9649 16.5248 10.9649C17.0449 10.9649 17.5463 10.7713 17.9315 10.4218C18.1174 10.2574 18.2658 10.055 18.3665 9.82814Z" fill="#3C3C3C"/>
</svg>
